﻿{
    "$schema": "http://schemas.specsolutions.eu/specsync4azuredevops-config-latest.json",

    // See configuration options and samples at http://speclink.me/specsyncconfig.
    // You can also check the 'specsync-sample.json' file in the 'docs' folder of the NuGet package.

    "remote": {
        "projectUrl": "https://dev.azure.com/kdyadechko/TestFrameworkStubAgile",
        "testSuite": {
            "name": "SpecFlow Scenarios"
        },
        "automation": {
            "enabled": true,
            "testExecutionStrategy": "assemblyBasedExecution"
        }
    }
}
